Field #,Field Name,Description (Field name),Maximum Field Length
1,APN,APN,14
2,APN_D,APN_D,17
3,ALT_APN,ALT_APN,14
4,PREV_APN,PREV_APN,14
5,CNTYNUM,CNTYID,2
6,CNTYCODE,CNTYCODE,3
7,STATUS,PSTATUS,8
8,YR_ASSD,YR_ASSD,4
9,DEL_YR,YRDELQ,4
10,TRA,TAXAREA,8
11,NAME1,OWNER,52
12,NAME2,OWNER2,46
13,NAMES,NAMES,96
14,VEST,VESTING,4
15,CARE_OF,CAREOF1,50
16,ZONING,ZONING,10
17,USE_STD,STDUSE,3
18,USE_CO,COUNTYUSE,8
19,LEGAL,LEGAL1,40
20,S_STRNUM,HSENO,10
21,S_FRA,HSESUB,3
22,S_DIR,DIR,2
23,S_STREET,STR,30
24,S_SUFFIX,SFX,4
25,S_UNIT,UNITNOX,12
26,S_CITY,CITY,24
27,S_ST,S_ST,2
28,S_ZIP,ZIP,5
29,S_ZIP4,S_ZIP4,5
30,M_STRNUM,M_HSENO,10
31,M_FRA,M_FRA,3
32,M_DIR,M_DIR,2
33,M_STREET,M_STR,30
34,M_SUFFIX,M_SFX,4
35,M_UNIT,M_UNITNOX,11
36,M_CITY,M_CITY,24
37,M_ST,M_STATE,2
38,M_ZIP,M_ZIP,5
39,M_ZIP4,M_ZIP4,4
40,TRACT,TRACT,6
41,BLOCK,BLOCK,6
42,LOT,LOT,6
43,RATIO,RATIO,6
44,LAND_VAL,LANDVAL,12
45,IMPR_VAL,IMPROVEVALUE,12
46,OTHER_VAL,OTHERVALUE,12
47,EXE_TOTAL,EXEMPAMT,12
48,GROSS_VAL,TOTALVALUE,12
49,TAX_AMT,TTAX,12
50,MINERAL,MINERAL,12
51,FIXTR,FIXTR,12
52,HOMESITE,HOMESITE,12
53,TIMBERVAL,TIMBERVAL,12
54,TREEVINES,TREEVINES,12
55,PERSPROP,PERSPROP,12
56,BUSINV,BUSINV,12
57,PP_MH,PP_MH,12
58,GROWIMPR,GROWIMPR,12
59,CLCALAND,CLCALAND,12
60,CLCAIMPR,CLCAIMPR,12
61,OTH_IMPR,OTH_IMPR,12
62,FIXTR_RP,FIXTR_RP,12
63,HH_PP,HH_PP,12
64,MAP_DIV,MAP_DIV,12
65,PUBL_FLG,PUBL_FLG,1
66,UNS_FLG,UNS_FLG,1
67,PROP8_FLG,PROP8_FLG,1
68,FULLEXE_FLG,FULLEXEMPT,1
69,TIMBER,TIMBER,1
70,AG_PRE,AGP,1
71,HO_FL,EXEMPT,1
72,MULTI_APN,MULTIAPN,1
73,SALE1_DATE,SALE1RD,8
74,SALE1_DOC,SALE1DN,12
75,SALE1_AMT,SALE1SP,12
76,SALE1_CODE,SALE1SC,10
77,SALE1_DOCTYPE,SALE1DT,4
78,SALE2_DATE,SALE2RD,8
79,SALE2_DOC,SALE2DN,12
80,SALE2_AMT,SALE2SP,12
81,SALE2_CODE,SALE2SC,10
82,SALE2_DOCTYPE,SALE2DT,4
83,SALE3_AMT,SALE3SP,12
84,SALE3_DATE,SALE3RD,8
85,SALE3_DOC,SALE3DN,12
86,SALE3_CODE,SALE3SC,10
87,SALE3_DOCTYPE,SALE3DT,4
88,XFER_DATE,TRANSDATE,8
89,XFER_DOC,TRANSDOC,12
90,TRS,TRS,14
91,SELLER,SELLER,24
92,LOT_ACRES,LOTSIZE,12
93,LOT_SQFT,LOTAREA,12
94,YR_BLT,YRBLT,6
95,YR_EFF,YREFF,4
96,BLDG_SQFT,BLDGAREA,12
97,UNITS,UNITS,4
98,STORIES,STORIES,6
99,BEDS,BEDRMS,4
100,BATH_F,BATH,4
101,BATH_H,HALFBATH,4
102,ROOMS,ROOMS,4
103,BLDG_CLS,BLDGCLASS,1
104,BLDG_QUALITY,QUALITY,1
105,IMPR_COND,IMPR_COND,1
106,FIRE_PL,FIREPLACE,2
107,BLDGS,BLDGS,4
108,AIR_COND,AIRCOND,1
109,HEAT,HEATING,1
110,PARK_TYPE,PARKTYPE,1
111,PARK_SPACE,PARKSPACE,4
112,GAR_SQFT,GARSIZE,12
113,WATER,WATER,1
114,SEWER,SEWER,1
115,POOL,POOL,1
116,FRONT_VIEW,VIEW,1
117,DOCLINKS,DOCLINKS,80
118,IMAPLINK,IMAPLINK,20
119,MAPLINK,MAPLINK,20
120,S_ADDR_D,S_ADDR_D,52
121,S_CTY_ST_D,S_CTY_ST_D,38
122,M_ADDR_D,M_ADDR_D,52
123,M_CTY_ST_D,M_CTY_ST_D,31
124,NAME_SWAP,NAME_SWAP,52
125,TD1_VAL,TD1AMT,10
126,TD2_VAL,TD2AMT,10
127,TD1CODE,TD1CODE,10
128,TD2CODE,TD1CODE,10
129,AR_CODE,AR_CODE,3
130,N_SCR,N_SCR,4
131,N_LON,N_LON,10
132,N_LAT,N_LAT,10
133,N_TRACT,N_TRACT,10
134,N_DPBC,N_DPBC,2
135,LONGITUDE,LONGITUDE,12
136,LATITUDE,LATITUDE,12
